<svg xmlns:svg="http://www.w3.org/2000/svg" xmlns="http://www.w3.org/2000/svg">
  <symbol id="globe" viewBox="0 0 16 16"><path d="m 8.31,2.81 c -3.11,0 -5.62,2.51 -5.62,5.62 0,3.11 2.51,5.62 5.62,5.62 3.11,0 5.62,-2.51 5.62,-5.62 0,-3.11 -2.51,-5.62 -5.62,-5.62 z M 8.54,4.79 C 8.65,4.98 8.58,5.35 8.01,5.54 L 7.30,4.19 c 0,0 0.97,-0.26 1.23,0.59 z M 6.96,13.07 C 6.59,13.11 6.10,13.18 5.99,11.72 5.80,11.42 5.47,11.31 5.09,11.24 c -0.33,-0.07 -0.41,-0.78 0,-1.34 C 4.75,9.51 3.25,8.20 3.55,6.93 3.85,5.92 4.38,4.60 6.14,3.78 c 0.71,0.67 1.16,1.04 0.22,1.53 -0.37,0.22 -0.48,0.74 0,0.82 0,0 0.11,-0.48 0.37,-0.33 C 7.04,5.92 7.68,6.59 7.19,6.63 6.66,6.66 6.48,6.89 6.25,7.15 6.03,7.45 5.62,8.16 5.32,8.20 5.02,8.24 5.05,7.75 4.79,7.75 c -0.26,0 -0.52,0 -0.37,0.78 0.14,0.44 1.53,1.46 4.57,2.39 0.07,0.18 -0.29,1.98 -2.02,2.13 z M 12.40,9.55 c 0,0 -0.07,0.07 -0.26,0.14 C 11.95,9.81 10.26,10.30 10.34,8.84 10.45,8.50 11.35,6.66 9.62,5.92 9.81,5.58 10.41,5.47 10.41,5.47 L 9.36,3.74 c 0,0 3.37,0.41 3.74,3.89 0,0.52 -0.03,1.94 -0.33,2.77 C 12.47,9.81 12.40,9.55 12.40,9.55 z" /></symbol>
  <symbol id="go" viewBox="0 0 16 16"><path d="M 8,2.5 C 4.9624339,2.5 2.5,4.9624339 2.5,8 c 0,3.037566 2.4624339,5.5 5.5,5.5 3.037566,0 5.5,-2.462434 5.5,-5.5 C 13.5,4.9624339 11.037566,2.5 8,2.5 z M 7.28125,4.40625 10.6875,7.84375 7.28125,11.25 l -1.1875,-1.15625 2.25,-2.25 -2.25,-2.25 1.1875,-1.1875 z" /></symbol>
  <symbol id="standards" viewBox="0 0 16 16"><path d="M 11.80,3.63 V 2.81 H 11.12 V 3.63 H 10.52 V 2.81 H 9.85 V 3.63 H 9.25 V 2.81 H 8.61 V 3.63 H 8.01 V 2.81 H 7.34 V 3.63 H 6.74 V 2.81 H 6.07 V 3.63 H 5.47 V 2.81 H 4.79 V 3.63 H 4.19 V 14.05 H 12.36 V 3.63 H 11.80 z M 11.20,12.55 H 5.47 v -0.41 h 5.73 v 0.41 z m 0,-1.57 H 5.47 v -0.41 h 5.73 v 0.41 z m 0,-1.53 H 5.47 V 8.99 H 11.20 V 9.44 z m 0,-1.57 H 5.47 V 7.45 h 5.73 v 0.41 z m 0,-1.53 H 5.47 v -0.41 h 5.73 v 0.41 z" /></symbol>
</svg>
